id,name,model_id:id,group_id:id,perm_read,perm_write,perm_create,perm_unlink
access_public_tabel_perusahaan,public_access,model_sys_perusahaan,,1,1,1,1
access_public_tabel_unit_usaha,public_access,model_sys_unitush,,1,1,1,1
access_public_tabel_grup_sandi_bi,public_access,model_um_grpsbi,,1,1,1,1
access_public_tabel_personal_level,public_access,model_hr_p_level,,1,1,1,1
access_public_tabel_sandi_bi,public_access,model_um_sbi,,1,1,1,1
access_public_tabel_bidang_usaha,public_access,model_ks_bidush,,1,1,1,1
access_public_tabel_penggunaan_pinjaman,public_access,model_ks_pgunap,,1,1,1,1
access_public_tabel_provinsi,public_access,model_um_provinsi,,1,1,1,1
access_public_tabel_kabupaten,public_access,model_um_kabupaten,,1,1,1,1
access_public_tabel_kecamatan,public_access,model_um_kecamatan,,1,1,1,1
access_public_tabel_kelurahan,public_access,model_um_kelurahan,,1,1,1,1
access_public_tabel_gelar,public_access,model_hr_gelar,,1,1,1,1
access_public_tabel_jenis_promo,public_access,model_ks_jpromo,,1,1,1,1
access_public_tabel_pendidikan,public_access,model_hr_pddk,,1,1,1,1
access_public_tabel_devisi,public_access,model_hr_divisi,,1,1,1,1
access_public_tabel_departmen,public_access,model_hr_dept,,1,1,1,1
access_public_tabel_jabatan,public_access,model_hr_jabatan,,1,1,1,1
access_public_tabel_alasan_tolak,public_access,model_ks_atolak,,1,1,1,1
access_public_tabel_barang_promo,public_access,model_um_brgpromo,,1,1,1,1
access_public_tabel_pendapatan_tidak_tetap,public_access,model_hr_ptkp,,1,1,1,1
access_public_tabel_alasan_batal,public_access,model_um_abatal,,1,1,1,1
access_public_tabel_alasan_tidak_tertagih,public_access,model_ks_alasantt,,1,1,1,1
access_public_tabel_profesi,public_access,model_ks_prof,,1,1,1,1
access_public_tabel_sifat_kredit,public_access,model_ks_sifatk,,1,1,1,1
access_public_tabel_kelompok_nr,public_access,model_gl_kelnr,,1,1,1,1
access_public_tabel_format_nr,public_access,model_gl_fornr,,1,1,1,1
access_public_tabel_group_nr,public_access,model_gl_grpnr,,1,1,1,1
access_public_tabel_main_account,public_access,model_gl_mainacc,,1,1,1,1
access_public_tabel_golongan_debitur,public_access,model_ks_goldeb,,1,1,1,1
access_public_tabel_golongan_kreditur,public_access,model_ks_golkr,,1,1,1,1
access_public_tabel_golongan_penjamin,public_access,model_ks_golpjamin,,1,1,1,1
access_public_tabel_golongan_pemilik,public_access,model_ks_golpmlk,,1,1,1,1
access_public_tabel_maskar,public_access,model_hr_maskar,,1,1,1,1


